2	1	456871	461511	centromere
3	2	446771	450941	centromere
4	3	597014	601275	centromere
5	4	641019	645339	centromere
6	5	454543	458793	centromere
7	6	477756	482016	centromere
8	7	808365	812875	centromere
9	8	297895	302515	centromere
10	9	1241081	1245451	centromere
11	10	935682	937823	centromere
12	11	830782	835432	centromere
13	12	1281521	1285941	centromere
14	13	1167070	1171720	centromere
15	14	1070909	1075369	centromere
